{
	"name": "throwingscythe",
	"loadDefault": true,
	"width": 0.5,
	"height": 0.5,
	"scale": 0.75,
	"damage": 3,
	"pierce": 2,
	"knockbackChance": 0.5,
	"effectDuration": 5,
	"effectAmplifier": 1,
	"velocity": 0.9,
	"weight": 0,
	"lifetime": 100,
	"elements": [
		"earth",
		"gravity"
	],
	"behaviours": [],
	"waterproof": true,
	"lavaproof": true,
	"cutGrass": true,
	"impactSound": false,
	"ripper": true,
	"pierceBlocks": false,
	"glow": false,
	"rollSpeed": 8
}