{
  "result": {
    "item": "lycanitesmobs:bucketmoglava",
    "count": 1
  },
  "ingredients": [
	{
      "item": "minecraft:lava_bucket",
      "item": "minecraft:ghast_tear"
    }
  ],
  "type": "minecraft:crafting_shapeless"
}