{
	"replace": false,
	"values": [
		"minecraft:spider_eye",
		"minecraft:fermented_spider_eye",
		"lycanitesmobs:raw_joust_meat",
		"lycanitesmobs:cooked_joust_meat",
		"lycanitesmobs:raw_concapede_meat",
		"lycanitesmobs:cooked_concapede_meat"
	]
}